{
  "name": "api.mashup.swarm",
  "debug": false,
  "app": {
      "cfengine": "lucee@5.3.2+77",
      "sessionCookieSecure": true,
      "sessionCookieHTTPOnly": true
  },
  "jvm": {
      "args": "-Dfrstartupdelay=30000 -Dfr.odl.activation.retry_amount=10 -Dfr.odl.activation.retry_interval=10000 -Dfrlicenseservice.logMessages=true"
  },
  "web": {
      "directoryBrowsing": false,
      "http": {
          "port":8080
      },
      "SSL": {
          "enable": true,
          "port": 8443
      },
      "webroot": "wwwroot"
  },
  "fusionreactor": {
    "enable": true,
    "port": "8088",
    "licenseKey": "${FR_LICENSEKEY}",
    "password": "${FR_PASSWORD}",
    "installID": "fusionreactor@8.2.0",
    "licenseDeactivateOnShutdown": true,
    "cloudGroup": "cfml,demo"
  }
}
