{
    "author":"",
    "bugs":"",
    "changelog":"",
    "contributors":[],
    "dependencies":{
        "coldbox":"^5.4.0+932",
        "giphycfc":"^0.1.0",
        "ayliencfc":"^0.1.2",
        "cbmessagebox":"^3..0.2+41",
        "cbantisamy":"^1.3.1-snapshot"
    },
    "description":"",
    "devDependencies":{},
    "documentation":"",
    "homepage":"",
    "ignore":[
        "**/.*",
        "/test/",
        "/tests/"
    ],
    "installPaths":{
        "coldbox":"coldbox/",
        "giphycfc":"modules/giphycfc/",
        "ayliencfc":"modules/ayliencfc/",
        "cbmessagebox":"modules/cbmessagebox/",
        "cbantisamy":"modules/cbantisamy/"
    },
    "instructions":"",
    "keywords":[],
    "license":[
        {
            "type":"",
            "URL":""
        }
    ],
    "location":"",
    "name":"CFML API Mashup",
    "private":false,
    "projectURL":"",
    "repository":{
        "type":"",
        "URL":""
    },
    "scripts":{},
    "shortDescription":"A sweet package",
    "slug":"cfml-api-mashup",
    "testbox":{
        "bundles":"",
        "directory":"tests.specs",
        "labels":"",
        "options":{},
        "recurse":true,
        "reporter":"",
        "runner":[
            {
                "default":""
            }
        ],
        "testBundles":"",
        "testSpecs":"",
        "testSuites":"",
        "verbose":true,
        "watchDelay":500,
        "watchPaths":"**.cfc"
    },
    "type":"",
    "version":"1.0.0"
}
